{
  "items" : [
    {
    "title": "Huawei p40 lite",
    "price": "200usd",
    "img": "/img/p40lite.jpg",
    "article": "1",
    "color": "black"
  } ,
  {
    "title": "Huawei p40 pro",
    "price": "800usd",
    "img": "/img/p40pro.jpg",
    "article": "2",
    "color": "black"
  },
  {
    "title": "Huawei p30",
    "price": "300usd",
    "img": "/img/p30.jpg",
    "article": "3"
  },
  {
    "title": "Huawei Mate XS",
    "price": "1700usd",
    "img": "/img/matexs.jpg",
    "article": "4",
    "color": "Interstellar Blue"
  },
  {
    "title": "Huawei Nova 5t",
    "price": "300usd",
    "img": "/img/nova5t.jpg",
    "article": "5",
    "color": "Midsummer Purple"
  },
  {
    "title": "Huawei P Smart 2021",
    "price": "220usd",
    "img": "/img/psmart2021.jpg",
    "color": "Crush Green",
    "article": "6"
  },
  {
    "title": "Huawei P Smart Pro",
    "price": "230usd",
    "img": "/img/psmartpro.jpg",
    "article": "7",
    "color": "Midnight Black"
  },
  {
    "title": "TECNO CAMON 12",
    "price": "1500usd",
    "img": "/img/technocamon12.jpg",
    "article": "8",
    "color": "Dawn Blue"
  },
   {
    "title": "Huawei p20 pro",
    "price": "400usd",
    "img": "/img/p20pro.jpg",
    "article": "9",
    "color": "Purple"
  },
   {
    "title": "Huawei y6",
    "price": "28000usd",
    "img": "/img/y6.jpg",
    "article": "10",
    "color": "Phantom Purple"
  }
]
}